Datascience2 - TextMining - Analysebericht
…
profanity
n

FALSE
96170

TRUE
4047

d_train_prof %>% 
  group_by(id) %>% 
  summarise(profanity_n = sum(profanity))

# A tibble: 5,009 × 2
      id profanity_n
   <int>       <int>
 1     1           0
 2     2           0
 3     3           0
 4     4           0
 5     5           2
 6     6           4
 7     7           1
 8     8           0
 9     9           0
10    10           0
# … with 4,999 more rows
…
